{
    "chromeWebSecurity":false,
    "defaultCommandTimeout": 8000,
    "pageLoadTimeout": 30000,
    "reporter": "mochawesome",
    
    "env": {
      "url": "https://rahulshettyacademy.com"
    },
    "testFiles": "**/*.js",
  
    "retries": {
      
      "runMode": 1
    },
    
   
    
    "projectId": "6dugg7"
  }
  